<?xml version="1.0" encoding="utf-8"?>
<!-- Generator: Adobe Illustrator 22.0.1, SVG Export Plug-In . SVG Version: 6.00 Build 0)  -->
<svg version="1.1" id="Layer_1" xmlns="http://www.w3.org/2000/svg" xmlns:xlink="http://www.w3.org/1999/xlink" x="0px" y="0px"
	 viewBox="0 0 118.7 193.8" style="enable-background:new 0 0 118.7 193.8;" xml:space="preserve">
<style type="text/css">
	.st0{display:none;}
	.st1{display:inline;fill:none;stroke:#F90606;stroke-width:0.5;stroke-miterlimit:10;}
	.st2{opacity:0.37;}
	.st3{fill:#3F0505;}
	.st4{fill:#700B0B;}
	.st5{fill:#B71313;}
	.st6{fill:#E01919;}
	.st7{fill:#EF0F0F;}
	.st8{fill:#F90606;}
	.st9{fill:#F20C0C;}
	.st10{fill:#E50E0E;}
	.st11{fill:#D31616;}
	.st12{fill:#A50F0F;}
	.st13{fill:#590707;}
	.st14{fill:#280303;}
	.st15{fill:#190101;}
</style>
<g class="st0">
	<line class="st1" x1="209.8" y1="284.3" x2="-17.7" y2="152.9"/>
	<line class="st1" x1="-84.2" y1="273.5" x2="136.8" y2="145.9"/>
	<line class="st1" x1="209.8" y1="259.2" x2="-17.7" y2="127.9"/>
	<line class="st1" x1="-84.2" y1="248.5" x2="136.8" y2="120.9"/>
	<line class="st1" x1="209.8" y1="234.2" x2="-17.7" y2="102.9"/>
	<line class="st1" x1="-84.2" y1="223.4" x2="136.8" y2="95.9"/>
	<line class="st1" x1="209.8" y1="209.2" x2="-17.7" y2="77.9"/>
	<line class="st1" x1="-84.2" y1="198.4" x2="136.8" y2="70.9"/>
	<line class="st1" x1="209.8" y1="184.2" x2="-17.7" y2="52.9"/>
	<line class="st1" x1="-84.2" y1="173.4" x2="136.8" y2="45.9"/>
	<line class="st1" x1="209.8" y1="159.2" x2="-17.7" y2="27.9"/>
	<line class="st1" x1="-84.2" y1="148.4" x2="136.8" y2="20.9"/>
	<line class="st1" x1="209.8" y1="134.2" x2="-17.7" y2="2.9"/>
	<line class="st1" x1="-84.2" y1="123.4" x2="136.8" y2="-4.1"/>
	<line class="st1" x1="209.8" y1="109.2" x2="-17.7" y2="-22.1"/>
	<line class="st1" x1="-84.2" y1="98.4" x2="136.8" y2="-29.2"/>
	<line class="st1" x1="209.8" y1="84.2" x2="-17.7" y2="-47.2"/>
	<line class="st1" x1="-84.2" y1="73.4" x2="136.8" y2="-54.2"/>
	<line class="st1" x1="209.8" y1="59.2" x2="-17.7" y2="-72.2"/>
	<line class="st1" x1="-84.2" y1="48.4" x2="136.8" y2="-79.2"/>
	<line class="st1" x1="10.1" y1="169" x2="10.1" y2="43.5"/>
	<line class="st1" x1="53.3" y1="212.2" x2="53.3" y2="86.7"/>
	<line class="st1" x1="75.1" y1="180.7" x2="75.1" y2="-18"/>
	<line class="st1" x1="118.4" y1="167.4" x2="118.4" y2="-31.3"/>
</g>
<g class="st2">
	<g id="XMLID_2_">
		<g>
			<polygon class="st3" points="107.8,125.3 107.8,150.3 107.8,150.3 86.1,137.8 107.8,125.3 			"/>
			<polygon class="st4" points="107.8,100.3 107.8,125.3 107.8,125.3 86.1,112.8 107.8,100.3 			"/>
			<polygon class="st5" points="107.8,75.3 107.8,100.3 107.8,100.3 86.1,87.8 107.8,75.3 			"/>
			<polygon class="st6" points="107.8,50.3 107.8,75.3 107.8,75.3 86.1,62.8 107.8,50.3 			"/>
			<polygon class="st7" points="107.8,25.3 107.8,50.3 107.8,50.3 86.1,37.8 107.8,25.3 			"/>
			<polygon class="st8" points="107.8,0.3 107.8,25.3 107.8,25.3 86.1,12.8 107.8,0.3 			"/>
			<polygon class="st9" points="107.8,25.3 86.1,37.8 64.5,25.3 86.1,12.8 			"/>
			<polygon class="st10" points="107.8,50.3 86.1,62.8 64.5,50.3 86.1,37.8 			"/>
			<polygon class="st11" points="107.8,75.3 86.1,87.8 64.5,75.3 86.1,62.8 			"/>
			<polygon class="st12" points="107.8,100.3 86.1,112.8 64.5,100.3 86.1,87.8 			"/>
			<polygon class="st13" points="107.8,125.3 86.1,137.8 64.5,125.3 86.1,112.8 			"/>
			<polygon class="st14" points="86.1,137.8 107.8,150.3 86.1,162.9 64.5,150.3 			"/>
			<polygon class="st3" points="64.5,125.3 86.1,137.8 64.5,150.3 			"/>
			<polygon class="st7" points="86.1,37.8 64.5,50.3 64.5,25.3 			"/>
			<polygon class="st5" points="86.1,87.8 64.5,100.3 64.5,75.3 			"/>
			<polygon class="st6" points="64.5,50.3 86.1,62.8 64.5,75.3 			"/>
			<polygon class="st4" points="64.5,100.3 86.1,112.8 64.5,125.3 			"/>
			<polygon class="st15" points="64.5,150.3 86.1,162.9 64.5,175.4 42.8,162.9 			"/>
			<polygon class="st3" points="64.5,125.3 64.5,150.3 42.8,137.8 			"/>
			<polygon class="st14" points="42.8,137.8 64.5,150.3 42.8,162.9 42.7,162.8 42.7,137.9 			"/>
			<polygon points="64.5,175.4 42.8,187.9 42.7,187.8 42.7,162.9 42.8,162.9 			"/>
			<polygon points="42.7,162.9 42.7,187.8 21.1,175.4 			"/>
			<polygon class="st15" points="42.7,162.8 42.7,162.9 21.1,175.4 -0.5,162.9 21.1,150.3 			"/>
			<polygon class="st14" points="42.7,137.9 42.7,162.8 21.1,150.3 			"/>
			<polygon class="st3" points="42.7,137.8 42.7,137.9 21.1,150.3 -0.5,137.8 21.1,125.3 			"/>
			<polygon class="st13" points="42.7,112.9 42.7,137.8 21.1,125.3 			"/>
			<polygon class="st14" points="21.1,150.3 -0.5,162.9 -0.5,137.8 -0.5,137.8 -0.5,137.8 			"/>
		</g>
		<g>
		</g>
	</g>
</g>
<g>
	<g id="XMLID_1_">
		<g>
			<polygon class="st3" points="118.4,131.5 118.4,156.5 118.4,156.5 96.8,144 118.4,131.5 			"/>
			<polygon class="st4" points="118.4,106.5 118.4,131.5 118.4,131.5 96.8,119 118.4,106.5 			"/>
			<polygon class="st5" points="118.4,81.5 118.4,106.5 118.4,106.5 96.8,94 118.4,81.5 			"/>
			<polygon class="st6" points="118.4,56.5 118.4,81.5 118.4,81.5 96.8,69 118.4,56.5 			"/>
			<polygon class="st7" points="118.4,31.5 118.4,56.5 118.4,56.5 96.8,44 118.4,31.4 			"/>
			<polygon class="st8" points="118.4,6.4 118.4,31.4 118.4,31.4 96.8,18.9 118.4,6.4 			"/>
			<polygon class="st9" points="118.4,31.4 96.8,44 75.1,31.4 96.8,18.9 			"/>
			<polygon class="st10" points="118.4,56.5 96.8,69 75.1,56.5 96.8,44 			"/>
			<polygon class="st11" points="118.4,81.5 96.8,94 75.1,81.5 96.8,69 			"/>
			<polygon class="st12" points="118.4,106.5 96.8,119 75.1,106.5 96.8,94 			"/>
			<polygon class="st13" points="118.4,131.5 96.8,144 75.1,131.5 96.8,119 			"/>
			<polygon class="st14" points="96.8,144 118.4,156.5 96.8,169 75.1,156.5 			"/>
			<polygon class="st3" points="75.1,131.5 96.8,144 75.1,156.5 			"/>
			<polygon class="st7" points="96.8,44 75.1,56.5 75.1,31.4 			"/>
			<polygon class="st5" points="96.8,94 75.1,106.5 75.1,81.5 			"/>
			<polygon class="st6" points="75.1,56.5 96.8,69 75.1,81.5 			"/>
			<polygon class="st4" points="75.1,106.5 96.8,119 75.1,131.5 			"/>
			<polygon class="st15" points="75.1,156.5 96.8,169 75.1,181.5 53.4,169 			"/>
			<polygon class="st3" points="75.1,131.5 75.1,156.5 53.4,144 			"/>
			<polygon class="st14" points="53.4,144 75.1,156.5 53.4,169 53.3,168.9 53.3,144.1 			"/>
			<polygon points="75.1,181.5 53.4,194 53.3,193.9 53.3,169.1 53.4,169 			"/>
			<polygon points="53.3,169.1 53.3,193.9 31.8,181.5 			"/>
			<polygon class="st15" points="53.3,168.9 53.3,169.1 31.8,181.5 10.1,169 31.8,156.5 			"/>
			<polygon class="st14" points="53.3,144.1 53.3,168.9 31.8,156.5 			"/>
			<polygon class="st3" points="53.3,143.9 53.3,144.1 31.8,156.5 10.1,144 31.8,131.5 			"/>
			<polygon class="st13" points="53.3,119.1 53.3,143.9 31.8,131.5 			"/>
			<polygon class="st14" points="31.8,156.5 10.1,169 10.1,144 10.1,144 10.1,144 			"/>
		</g>
		<g>
		</g>
	</g>
</g>
</svg>
